^C:\Users\zhuzhuoyue\Desktop\areal_unity\areal_unity\Dependencies\Navigation\DetourServer.vcxproj
C:\Users\zhuzhuoyue\Desktop\areal_unity\areal_unity\Dependencies\Navigation\Release\DetourServer.lib
C:\Users\zhuzhuoyue\Desktop\areal_unity\areal_unity\Dependencies\Navigation\Release\DetourServer.exp
