^C:\USERS\ZHUZHUOYUE\DESKTOP\AREAL_UNITY\AREAL_UNITY\DEPENDENCIES\NAVIGATION\OBJ\RELEASE\DETOUR\DETOURALLOC.OBJ|C:\USERS\ZHUZHUOYUE\DESKTOP\AREAL_UNITY\AREAL_UNITY\DEPENDENCIES\NAVIGATION\OBJ\RELEASE\DETOUR\DETOURCOMMON.OBJ|C:\USERS\ZHUZHUOYUE\DESKTOP\AREAL_UNITY\AREAL_UNITY\DEPENDENCIES\NAVIGATION\OBJ\RELEASE\DETOUR\DETOURNAVMESH.OBJ|C:\USERS\ZHUZHUOYUE\DESKTOP\AREAL_UNITY\AREAL_UNITY\DEPENDENCIES\NAVIGATION\OBJ\RELEASE\DETOUR\DETOURNAVMESHBUILDER.OBJ|C:\USERS\ZHUZHUOYUE\DESKTOP\AREAL_UNITY\AREAL_UNITY\DEPENDENCIES\NAVIGATION\OBJ\RELEASE\DETOUR\DETOURNAVMESHQUERY.OBJ|C:\USERS\ZHUZHUOYUE\DESKTOP\AREAL_UNITY\AREAL_UNITY\DEPENDENCIES\NAVIGATION\OBJ\RELEASE\DETOUR\DETOURNODE.OBJ
C:\WINDOWS\GLOBALIZATION\SORTING\SORTDEFAULT.NLS
C:\WINDOWS\SYSTEM32\TZRES.DLL
C:\USERS\ZHUZHUOYUE\DESKTOP\AREAL_UNITY\AREAL_UNITY\DEPENDENCIES\NAVIGATION\OBJ\RELEASE\DETOUR\DETOURALLOC.OBJ
C:\USERS\ZHUZHUOYUE\DESKTOP\AREAL_UNITY\AREAL_UNITY\DEPENDENCIES\NAVIGATION\OBJ\RELEASE\DETOUR\DETOURCOMMON.OBJ
C:\USERS\ZHUZHUOYUE\DESKTOP\AREAL_UNITY\AREAL_UNITY\DEPENDENCIES\NAVIGATION\OBJ\RELEASE\DETOUR\DETOURNAVMESH.OBJ
C:\USERS\ZHUZHUOYUE\DESKTOP\AREAL_UNITY\AREAL_UNITY\DEPENDENCIES\NAVIGATION\OBJ\RELEASE\DETOUR\DETOURNAVMESHBUILDER.OBJ
C:\USERS\ZHUZHUOYUE\DESKTOP\AREAL_UNITY\AREAL_UNITY\DEPENDENCIES\NAVIGATION\OBJ\RELEASE\DETOUR\DETOURNAVMESHQUERY.OBJ
C:\USERS\ZHUZHUOYUE\DESKTOP\AREAL_UNITY\AREAL_UNITY\DEPENDENCIES\NAVIGATION\OBJ\RELEASE\DETOUR\DETOURNODE.OBJ
