%YAML 1.1
%TAG !u! tag:unity3d.com,2011:
--- !u!1045 &1
EditorBuildSettings:
  m_ObjectHideFlags: 0
  serializedVersion: 2
  m_Scenes:
  - enabled: 1
    path: Assets/GameAssets/scenes/main.unity
    guid: c620e6079bf164540a24a2ba523e2407
  - enabled: 0
    path: Assets/GameAssets/scenes/map1/map1.unity
    guid: 40fb0a64d23be53478907a268285a89f
  - enabled: 0
    path: Assets/GameAssets/scenes/map2/map2.unity
    guid: f1a764487efe2914c822864573806f6f
  - enabled: 0
    path: Assets/GameAssets/scenes/map4/map4.unity
    guid: 523375147ec4a5b438805e42bbb3d644
