%YAML 1.1
%TAG !u! tag:unity3d.com,2011:
--- !u!221 &22100000
AnimatorOverrideController:
  m_ObjectHideFlags: 0
  m_PrefabParentObject: {fileID: 0}
  m_PrefabInternal: {fileID: 0}
  m_Name: controller
  m_Controller: {fileID: 9100000, guid: d42c5b6aefd39ff4d98adafe6c143aff, type: 2}
  m_Clips: []
